…
#### First we’ll start by finding the average, midpoint, maximum, and minimums for our ride times.

Month Count

``` r
month_count = bike_data %>% 
  group_by(months = month.name[month(started_at)], member_casual) %>% 
  summarize(row_count = n()) %>% 
  arrange(match(months,month.name))
```
``` r
print(month_count)
```

    ## # A tibble: 24 × 3
    ## # Groups:   months [12]
    ##    months   member_casual row_count
    ##    <chr>    <chr>             <int>
    ##  1 January  casual            17364
    ##  2 January  member            93511
    ##  3 February casual            37599
    ##  4 February member           144427
    ##  5 March    casual            61775
    ##  6 March    member           164660
    ##  7 April    casual            92205
    ##  8 April    member           200268
    ##  9 May      casual           164294
    ## 10 May      member           269961
    ## # ℹ 14 more rows
…
Top Start Station

``` r
top_start_station = bike_data %>% 
  group_by(start_station_name, member_casual) %>% 
  summarize(row_count = n()) %>% 
  arrange(desc(row_count))
```
``` r
print(top_start_station)
```

    ## # A tibble: 3,096 × 3
    ## # Groups:   start_station_name [1,669]
    ##    start_station_name                 member_casual row_count
    ##    <chr>                              <chr>             <int>
    ##  1 Streeter Dr & Grand Ave            casual            45559
    ##  2 DuSable Lake Shore Dr & Monroe St  casual            30099
    ##  3 Kingsbury St & Kinzie St           member            25008
    ##  4 Clinton St & Washington Blvd       member            24810
    ##  5 Michigan Ave & Oak St              casual            22511
    ##  6 Clark St & Elm St                  member            21848
    ##  7 Clinton St & Madison St            member            21229
    ##  8 DuSable Lake Shore Dr & North Blvd casual            20487
    ##  9 Shedd Aquarium                     casual            19025
    ## 10 Millennium Park                    casual            18975
    ## # ℹ 3,086 more rows

Top End Station

``` r
top_end_station = bike_data %>% 
  group_by(end_station_name, member_casual) %>% 
  summarize(row_count = n()) %>% 
  arrange(desc(row_count))
```
``` r
print(top_end_station)
```

    ## # A tibble: 3,118 × 3
    ## # Groups:   end_station_name [1,678]
    ##    end_station_name                   member_casual row_count
    ##    <chr>                              <chr>             <int>
    ##  1 Streeter Dr & Grand Ave            casual            49658
    ##  2 DuSable Lake Shore Dr & Monroe St  casual            27801
    ##  3 Clinton St & Washington Blvd       member            25450
    ##  4 Kingsbury St & Kinzie St           member            24958
    ##  5 DuSable Lake Shore Dr & North Blvd casual            23831
    ##  6 Michigan Ave & Oak St              casual            23364
    ##  7 Clinton St & Madison St            member            22322
    ##  8 Clark St & Elm St                  member            21922
    ##  9 Millennium Park                    casual            21124
    ## 10 Wells St & Concord Ln              member            18154
    ## # ℹ 3,108 more rows
…
